v -0.375963510226858 -0.434944951517049 0.226769899652438
v 0.274960169324976 0.629414453785605 0.147902493729957
v -0.656321778668418 0.0878950570085128 0.125625097691512
v -0.29717511305908 0.690246479156147 0.113717128414838
v 0.183794444863594 0.398198615877348 0.415270901567096
v 0.287955265831961 0.0983369011421948 0.624608938353143
v 0.248383091386042 -0.516365893274008 0.313664675589181
v -0.323447150540339 -0.524410497281834 -0.0604151571975088
v -0.517348142952156 0.321432027221682 0.0322823063940138
v 0.26831952067283 -0.414799701470369 0.578474023463227
v -0.309545880378093 -0.429602940926268 -0.442263110099038
v -0.523001448155664 0.0449898617764582 -0.274936385690692
v 0.455244465283822 0.237479788909848 0.174650628999677
v -0.262777838652851 0.621799657007567 -0.396580393207867
v 0.6096988367866 0.0750088999306506 0.124249523458866
v -0.0549180683630098 0.319363022615281 -0.506120862957724
v 0.538899833097014 0.102627719055911 -0.279620803549315
v 0.2601068168042 0.566702250916531 -0.384417495174173
v 0.586716514854398 -0.333133289929779 0.0794658123446356
v 0.178311276148196 -0.709879952127678 0.104037788872192
v -0.236052005909572 0.0606715498898788 -0.587344338280426
v 0.252842645617524 0.104031013266593 -0.604839632629202
v 0.320251736624887 -0.465329772463049 -0.477251657700928
v -0.299019760603453 0.112914866886098 0.652451597950749
v -0.379008703256384 0.26384666712158 0.306115428271107
v -0.238878893241281 -0.388717896831555 0.574104588337778
v -0.189217602824408 0.405484546971756 0.480848569667433
vn -0.6331289 -0.6720223 0.3841015
vn 0.4087989 0.859325 0.3073173
vn -0.9816025 0.08100995 0.1728981
vn -0.5558856 0.7604811 0.3356481
vn 0.4585205 0.5992736 0.6562241
vn 0.3793195 0.268935 0.8853195
vn 0.3474028 -0.781988 0.5174999
vn -0.6327837 -0.7575692 -0.1602305
vn -0.8718936 0.4810173 -0.09178181
vn 0.6281065 -0.3441255 0.6978968
vn -0.562629 -0.5351455 -0.6301332
vn -0.9024968 0.02631308 -0.4298922
vn 0.846899 0.4359262 0.3045167
vn -0.3274483 0.7330548 -0.5961614
vn 0.931348 0.09006391 0.3528164
vn -0.006049019 0.3673581 -0.9300599
vn 0.9087337 0.2207474 -0.3542227
vn 0.5532741 0.6256796 -0.5499207
vn 0.9007043 -0.418981 0.1148337
vn 0.1322842 -0.9735688 0.1861846
vn -0.3988758 0.1298549 -0.9077642
vn 0.3177275 0.1767436 -0.9315637
vn 0.3635317 -0.6181306 -0.6969644
vn -0.6273621 0.2070216 0.7507056
vn -0.7355614 0.4972157 0.4601369
vn -0.2796103 -0.5959043 0.7528055
vn -0.2126591 0.6583509 0.7220458
f 1//1 3//3 8//8
f 12//12 3//3 9//9
f 13//13 5//5 6//6
f 13//13 6//6 10//10
f 10//10 26//26 7//7
f 7//7 26//26 1//1
f 12//12 8//8 3//3
f 2//2 5//5 13//13
f 13//13 10//10 15//15
f 20//20 7//7 1//1
f 20//20 1//1 8//8
f 14//14 9//9 4//4
f 14//14 4//4 2//2
f 15//15 10//10 7//7
f 11//11 8//8 12//12
f 18//18 14//14 2//2
f 18//18 2//2 13//13
f 19//19 15//15 7//7
f 19//19 7//7 20//20
f 21//21 12//12 9//9
f 21//21 9//9 14//14
f 13//13 15//15 17//17
f 21//21 14//14 16//16
f 16//16 14//14 18//18
f 23//23 20//20 8//8
f 23//23 8//8 11//11
f 21//21 11//11 12//12
f 17//17 18//18 13//13
f 17//17 15//15 19//19
f 23//23 11//11 21//21
f 22//22 21//21 16//16
f 23//23 21//21 22//22
f 22//22 16//16 18//18
f 17//17 23//23 22//22
f 19//19 20//20 23//23
f 19//19 23//23 17//17
f 17//17 22//22 18//18
f 1//1 24//24 3//3
f 3//3 24//24 25//25
f 3//3 25//25 9//9
f 26//26 24//24 1//1
f 25//25 4//4 9//9
f 24//24 27//27 25//25
f 25//25 27//27 4//4
f 26//26 6//6 24//24
f 24//24 6//6 27//27
f 10//10 6//6 26//26
f 6//6 5//5 27//27
f 27//27 5//5 2//2
f 27//27 2//2 4//4
